/media/thk/workspace/gitlab_proj/custom_train_mrcnn/shapes/train/images/train-109.jpg,128,128,square,38,66,38,127,100,127,100,67,85,80,70,84,55,80
/media/thk/workspace/gitlab_proj/custom_train_mrcnn/shapes/train/images/train-109.jpg,128,128,circle,70,21,52,27,43,37,39,52,45,70,55,79,70,83,85,79,97,67,77,66,95,34,85,25
/media/thk/workspace/gitlab_proj/custom_train_mrcnn/shapes/train/images/train-109.jpg,128,128,triangle,125,66,102,26,78,66
