/media/thk/workspace/gitlab_proj/custom_train_mrcnn/shapes/train/images/train-012.jpg,128,128,circle,68,77,56,81,52,85,48,97,52,109,56,113,68,117,80,113,85,107,68,105,81,84,80,81
/media/thk/workspace/gitlab_proj/custom_train_mrcnn/shapes/train/images/train-012.jpg,128,128,square,5,33,5,75,47,75,47,33
/media/thk/workspace/gitlab_proj/custom_train_mrcnn/shapes/train/images/train-012.jpg,128,128,triangle,100,53,69,105,127,105,124,94
