/media/thk/workspace/gitlab_proj/custom_train_mrcnn/shapes/train/images/train-456.jpg,128,128,square,61,0,61,20,99,20,100,52,117,52,117,0
/media/thk/workspace/gitlab_proj/custom_train_mrcnn/shapes/train/images/train-456.jpg,128,128,triangle,28,5,0,57,50,57,50,43
/media/thk/workspace/gitlab_proj/custom_train_mrcnn/shapes/train/images/train-456.jpg,128,128,square,51,21,51,69,99,69,99,21
