/media/thk/workspace/gitlab_proj/custom_train_mrcnn/shapes/train/images/train-021.jpg,128,128,square,82,41,69,41,75,55,34,55,34,89,49,66,63,89,82,89
/media/thk/workspace/gitlab_proj/custom_train_mrcnn/shapes/train/images/train-021.jpg,128,128,triangle,80,121,49,67,17,121
/media/thk/workspace/gitlab_proj/custom_train_mrcnn/shapes/train/images/train-021.jpg,128,128,triangle,75,54,51,12,26,54
