/media/thk/workspace/gitlab_proj/custom_train_mrcnn/shapes/train/images/train-090.jpg,128,128,square,31,5,31,45,71,45,71,5
/media/thk/workspace/gitlab_proj/custom_train_mrcnn/shapes/train/images/train-090.jpg,128,128,circle,94,46,79,51,74,56,69,71,74,86,79,91,94,96,109,91,114,86,119,71,114,56,109,51
/media/thk/workspace/gitlab_proj/custom_train_mrcnn/shapes/train/images/train-090.jpg,128,128,triangle,15,91,78,91,73,86,69,72,54,46,40,48
