/media/thk/workspace/gitlab_proj/custom_train_mrcnn/shapes/train/images/train-157.jpg,128,128,square,7,90,7,127,61,127,61,90
/media/thk/workspace/gitlab_proj/custom_train_mrcnn/shapes/train/images/train-157.jpg,128,128,square,53,73,54,74,57,81,59,83,61,88,61,73
/media/thk/workspace/gitlab_proj/custom_train_mrcnn/shapes/train/images/train-157.jpg,128,128,square,69,24,69,74,119,74,119,24
/media/thk/workspace/gitlab_proj/custom_train_mrcnn/shapes/train/images/train-157.jpg,128,128,triangle,25,25,0,70,0,89,61,89
