/media/thk/workspace/gitlab_proj/custom_train_mrcnn/shapes/train/images/train-272.jpg,128,128,circle,34,69,19,74,14,79,9,94,14,109,19,114,34,119,49,114,54,109,59,94,54,79,49,74
/media/thk/workspace/gitlab_proj/custom_train_mrcnn/shapes/train/images/train-272.jpg,128,128,circle,74,0,74,40,77,43,83,45,92,38,114,34,117,27,117,13,109,0
/media/thk/workspace/gitlab_proj/custom_train_mrcnn/shapes/train/images/train-272.jpg,128,128,circle,105,36,87,42,78,52,74,67,80,85,90,94,105,98,118,95,127,88,127,46,118,39
/media/thk/workspace/gitlab_proj/custom_train_mrcnn/shapes/train/images/train-272.jpg,128,128,square,9,0,9,57,73,57,73,0
