/media/thk/workspace/gitlab_proj/custom_train_mrcnn/shapes/train/images/train-124.jpg,128,128,square,24,58,24,122,88,122,88,86,75,89,62,86,47,72,44,58
/media/thk/workspace/gitlab_proj/custom_train_mrcnn/shapes/train/images/train-124.jpg,128,128,square,86,16,86,28,93,31,101,39,106,50,106,56,126,56,126,16
/media/thk/workspace/gitlab_proj/custom_train_mrcnn/shapes/train/images/train-124.jpg,128,128,circle,75,26,57,32,48,42,44,57,50,75,60,84,75,88,93,82,102,72,106,57,100,39,90,30
