/media/thk/workspace/gitlab_proj/custom_train_mrcnn/shapes/train/images/train-059.jpg,128,128,circle,47,29,33,34,27,41,24,52,29,66,36,72,47,75,47,60,68,59,70,52,65,38,58,32
/media/thk/workspace/gitlab_proj/custom_train_mrcnn/shapes/train/images/train-059.jpg,128,128,square,48,60,48,110,98,110,98,60
/media/thk/workspace/gitlab_proj/custom_train_mrcnn/shapes/train/images/train-059.jpg,128,128,triangle,76,0,58,30,69,43,70,56,112,56,81,1
