/media/thk/workspace/gitlab_proj/custom_train_mrcnn/shapes/train/images/train-488.jpg,128,128,circle,49,106,53,118,58,123,70,127,82,123,87,118,91,106,90,103,62,103,61,105
/media/thk/workspace/gitlab_proj/custom_train_mrcnn/shapes/train/images/train-488.jpg,128,128,circle,100,60,91,62,85,66,80,73,78,82,80,91,84,97,91,102,100,104,109,102,115,98,120,91,122,82,120,73,116,67,109,62
/media/thk/workspace/gitlab_proj/custom_train_mrcnn/shapes/train/images/train-488.jpg,128,128,square,19,62,19,104,61,104,61,62
/media/thk/workspace/gitlab_proj/custom_train_mrcnn/shapes/train/images/train-488.jpg,128,128,triangle,74,46,62,66,62,102,90,102,83,97,78,88,78,76,85,65
