/media/thk/workspace/gitlab_proj/custom_train_mrcnn/shapes/train/images/train-175.jpg,128,128,triangle,83,85,83,124,105,124
/media/thk/workspace/gitlab_proj/custom_train_mrcnn/shapes/train/images/train-175.jpg,128,128,square,20,64,20,126,82,126,82,64
/media/thk/workspace/gitlab_proj/custom_train_mrcnn/shapes/train/images/train-175.jpg,128,128,circle,86,1,71,6,66,11,61,26,66,41,71,46,86,51,101,46,106,41,111,26,106,11,101,6
