/media/thk/workspace/gitlab_proj/custom_train_mrcnn/shapes/train/images/train-469.jpg,128,128,square,68,0,68,52,127,52,127,0
/media/thk/workspace/gitlab_proj/custom_train_mrcnn/shapes/train/images/train-469.jpg,128,128,triangle,59,81,47,61,27,61,26,51,0,101,48,101
/media/thk/workspace/gitlab_proj/custom_train_mrcnn/shapes/train/images/train-469.jpg,128,128,square,27,20,27,60,67,60,67,20
/media/thk/workspace/gitlab_proj/custom_train_mrcnn/shapes/train/images/train-469.jpg,128,128,triangle,74,58,37,122,110,122
