/media/thk/workspace/gitlab_proj/custom_train_mrcnn/shapes/train/images/train-492.jpg,128,128,square,36,34,36,81,49,94,96,94,96,34
/media/thk/workspace/gitlab_proj/custom_train_mrcnn/shapes/train/images/train-492.jpg,128,128,circle,42,86,34,81,24,79,14,81,4,88,0,94,0,118,6,126,40,127,49,116,51,106,49,96
/media/thk/workspace/gitlab_proj/custom_train_mrcnn/shapes/train/images/train-492.jpg,128,128,triangle,25,45,4,82,0,93,6,85,14,80,24,78,35,81,35,62
/media/thk/workspace/gitlab_proj/custom_train_mrcnn/shapes/train/images/train-492.jpg,128,128,triangle,49,95,50,96,50,98,51,99,51,105,52,106,51,107,60,107,59,106,57,101,55,99,54,96,53,95
