/media/thk/workspace/gitlab_proj/custom_train_mrcnn/shapes/train/images/train-319.jpg,128,128,square,70,17,70,33,77,34,77,67,120,67,120,17
/media/thk/workspace/gitlab_proj/custom_train_mrcnn/shapes/train/images/train-319.jpg,128,128,square,76,34,54,34,56,42,52,55,44,63,30,66,30,80,76,80
/media/thk/workspace/gitlab_proj/custom_train_mrcnn/shapes/train/images/train-319.jpg,128,128,circle,31,18,18,22,11,29,7,42,11,55,18,62,31,66,44,62,51,55,55,42,51,29,44,22
