/media/thk/workspace/gitlab_proj/custom_train_mrcnn/shapes/train/images/train-265.jpg,128,128,square,22,52,22,98,49,98,56,87,68,82,68,52
/media/thk/workspace/gitlab_proj/custom_train_mrcnn/shapes/train/images/train-265.jpg,128,128,triangle,106,62,89,91,93,98,93,108,127,108,127,100
/media/thk/workspace/gitlab_proj/custom_train_mrcnn/shapes/train/images/train-265.jpg,128,128,circle,71,82,62,84,56,88,51,95,49,104,51,113,55,119,62,124,71,126,80,124,86,120,91,113,93,104,91,95,87,89,80,84
/media/thk/workspace/gitlab_proj/custom_train_mrcnn/shapes/train/images/train-265.jpg,128,128,circle,87,0,73,14,71,24,73,34,87,48,97,50,107,48,121,34,123,24,121,14,107,0
