/media/thk/workspace/gitlab_proj/custom_train_mrcnn/shapes/train/images/train-392.jpg,128,128,triangle,39,0,13,44,64,44
/media/thk/workspace/gitlab_proj/custom_train_mrcnn/shapes/train/images/train-392.jpg,128,128,circle,45,87,30,82,23,83,10,92,5,107,6,114,15,127,45,127,50,122,55,107,54,100
/media/thk/workspace/gitlab_proj/custom_train_mrcnn/shapes/train/images/train-392.jpg,128,128,triangle,86,63,59,109,112,109
