/media/thk/workspace/gitlab_proj/custom_train_mrcnn/shapes/train/images/train-170.jpg,128,128,square,67,5,67,47,109,47,109,5
/media/thk/workspace/gitlab_proj/custom_train_mrcnn/shapes/train/images/train-170.jpg,128,128,circle,111,81,106,81,106,123,96,124,105,126,116,123,123,117,127,109,127,97,125,92,119,85
/media/thk/workspace/gitlab_proj/custom_train_mrcnn/shapes/train/images/train-170.jpg,128,128,square,51,69,51,123,105,123,105,69
/media/thk/workspace/gitlab_proj/custom_train_mrcnn/shapes/train/images/train-170.jpg,128,128,circle,58,45,51,44,37,48,29,55,24,65,23,72,27,86,34,94,44,99,50,99,51,68,78,68,73,55
