/media/thk/workspace/gitlab_proj/custom_train_mrcnn/shapes/train/images/train-080.jpg,128,128,triangle,55,82,57,86,59,88,60,91,74,91,69,82
/media/thk/workspace/gitlab_proj/custom_train_mrcnn/shapes/train/images/train-080.jpg,128,128,triangle,48,45,21,91,27,91,32,83,30,81,49,48
/media/thk/workspace/gitlab_proj/custom_train_mrcnn/shapes/train/images/train-080.jpg,128,128,triangle,9,124,78,124,54,82,33,82
/media/thk/workspace/gitlab_proj/custom_train_mrcnn/shapes/train/images/train-080.jpg,128,128,triangle,68,17,31,81,104,81
