/media/thk/workspace/gitlab_proj/custom_train_mrcnn/shapes/train/images/train-024.jpg,128,128,square,110,41,110,83,97,84,106,86,115,84,120,81,127,72,127,54,120,45
/media/thk/workspace/gitlab_proj/custom_train_mrcnn/shapes/train/images/train-024.jpg,128,128,triangle,35,73,4,127,66,127
/media/thk/workspace/gitlab_proj/custom_train_mrcnn/shapes/train/images/train-024.jpg,128,128,square,47,21,47,83,109,83,109,21
