/media/thk/workspace/gitlab_proj/custom_train_mrcnn/shapes/train/images/train-001.jpg,128,128,triangle,75,95,51,54,38,72,24,78,14,95
/media/thk/workspace/gitlab_proj/custom_train_mrcnn/shapes/train/images/train-001.jpg,128,128,circle,21,21,11,23,0,31,0,67,11,75,21,77,38,71,48,54,39,53,47,40,43,32,35,25
/media/thk/workspace/gitlab_proj/custom_train_mrcnn/shapes/train/images/train-001.jpg,128,128,triangle,87,53,64,13,40,53
