/media/thk/workspace/gitlab_proj/custom_train_mrcnn/shapes/train/images/train-434.jpg,128,128,circle,48,95,45,106,46,112,51,121,61,127,73,127,82,122,86,117,89,106,88,103,79,106,67,102,59,92,51,92
/media/thk/workspace/gitlab_proj/custom_train_mrcnn/shapes/train/images/train-434.jpg,128,128,triangle,87,27,50,91,59,91,61,72,79,62,97,72,99,91,123,91
/media/thk/workspace/gitlab_proj/custom_train_mrcnn/shapes/train/images/train-434.jpg,128,128,circle,79,63,67,67,62,72,58,84,62,96,67,101,79,105,91,101,96,96,100,84,96,72,91,67
