/media/thk/workspace/gitlab_proj/custom_train_mrcnn/shapes/train/images/train-437.jpg,128,128,square,56,75,56,92,71,92,71,80,66,80
/media/thk/workspace/gitlab_proj/custom_train_mrcnn/shapes/train/images/train-437.jpg,128,128,circle,73,22,53,30,46,41,44,51,52,71,63,78,73,80,93,72,100,61,102,51,94,31,83,24
/media/thk/workspace/gitlab_proj/custom_train_mrcnn/shapes/train/images/train-437.jpg,128,128,square,0,72,0,127,55,127,55,72
/media/thk/workspace/gitlab_proj/custom_train_mrcnn/shapes/train/images/train-437.jpg,128,128,square,31,52,31,71,51,71,45,61,44,52
/media/thk/workspace/gitlab_proj/custom_train_mrcnn/shapes/train/images/train-437.jpg,128,128,circle,30,23,17,27,10,34,6,47,10,60,17,67,30,71,30,52,43,51,49,34,43,27
