/media/thk/workspace/gitlab_proj/custom_train_mrcnn/shapes/train/images/train-161.jpg,128,128,square,73,35,98,77,73,78,73,81,119,81,119,35
/media/thk/workspace/gitlab_proj/custom_train_mrcnn/shapes/train/images/train-161.jpg,128,128,triangle,74,37,61,58,66,68,66,77,97,77
/media/thk/workspace/gitlab_proj/custom_train_mrcnn/shapes/train/images/train-161.jpg,128,128,circle,38,47,21,53,14,61,10,75,16,92,24,99,38,103,55,97,62,89,66,75,60,58,52,51
