/media/thk/workspace/gitlab_proj/custom_train_mrcnn/shapes/train/images/train-277.jpg,128,128,square,68,74,58,74,57,77,10,77,10,127,68,127,68,81,64,80
/media/thk/workspace/gitlab_proj/custom_train_mrcnn/shapes/train/images/train-277.jpg,128,128,square,5,24,5,76,57,76,57,58,44,57,44,24
/media/thk/workspace/gitlab_proj/custom_train_mrcnn/shapes/train/images/train-277.jpg,128,128,square,45,1,45,57,77,57,99,21,101,24,101,1
/media/thk/workspace/gitlab_proj/custom_train_mrcnn/shapes/train/images/train-277.jpg,128,128,triangle,99,22,65,80,127,80,127,72
