/media/thk/workspace/gitlab_proj/custom_train_mrcnn/shapes/train/images/train-442.jpg,128,128,triangle,73,46,54,79,57,88,51,102,114,102,98,74,73,73
/media/thk/workspace/gitlab_proj/custom_train_mrcnn/shapes/train/images/train-442.jpg,128,128,square,74,15,74,73,127,73,127,15
/media/thk/workspace/gitlab_proj/custom_train_mrcnn/shapes/train/images/train-442.jpg,128,128,circle,35,67,23,71,18,76,14,88,18,100,23,105,35,109,47,105,52,100,56,88,52,76,47,71
