/media/thk/workspace/gitlab_proj/custom_train_mrcnn/shapes/train/images/train-104.jpg,128,128,triangle,46,89,41,90,35,89,21,112,46,112
/media/thk/workspace/gitlab_proj/custom_train_mrcnn/shapes/train/images/train-104.jpg,128,128,square,72,55,72,65,67,76,56,86,47,89,47,113,105,113,105,55
/media/thk/workspace/gitlab_proj/custom_train_mrcnn/shapes/train/images/train-104.jpg,128,128,circle,41,27,23,33,14,43,10,58,16,76,26,85,41,89,59,83,68,73,72,58,66,40,56,31
